Option A
…
If you use any resources for helping you remove stopwords. name the source and link to it.

df <- janeaustenr::austen_books() %>% 
  nest(data = text) %>% 
  mutate(freq = map(data, 
                    ~ qdap::freq_terms(.x$text, 10,
                                       at.least = 5,                                        tm::stopwords("english"))))

df1 <- df %>%
  dplyr::select(-data) %>% # assuming you don't need this column any longer
  unnest(freq)
df1 

## # A tibble: 60 × 3
##    book                WORD      FREQ
##    <fct>               <chr>    <dbl>
##  1 Sense & Sensibility elinor     616
##  2 Sense & Sensibility marianne   488
##  3 Sense & Sensibility every      373
##  4 Sense & Sensibility dashwood   224
##  5 Sense & Sensibility might      215
##  6 Sense & Sensibility sister     213
##  7 Sense & Sensibility though     213
##  8 Sense & Sensibility edward     210
##  9 Sense & Sensibility think      205
## 10 Sense & Sensibility mother     201
## # … with 50 more rows
…
